{
  "kind": "collectionType",
  "collectionName": "blogs",
  "info": {
    "name": "Blog"
  },
  "options": {
    "increments": true,
    "timestamps": true,
    "draftAndPublish": true
  },
  "pluginOptions": {},
  "attributes": {
    "Name": {
      "type": "string"
    },
    "Content": {
      "type": "richtext"
    },
    "public": {
      "type": "boolean"
    },
    "Images": {
      "collection": "file",
      "via": "related",
      "allowedTypes": [
        "images",
        "files",
        "videos"
      ],
      "plugin": "upload",
      "required": false,
      "pluginOptions": {}
    }
  }
}
